chr7	cladimo	cladistic_motif	66075473	66075478	0.038000	+	.	pwm_motif NGATR; species_matched cow,dog; pwm_name GATA2; pwm_accession MA0036; number_of_matches 2; "max score" 0.97
chr7	cladimo	cladistic_motif	66075520	66075525	0.000000	+	.	pwm_motif NGATR; species_matched fugu; pwm_name GATA2; pwm_accession MA0036; number_of_matches 1; "max score" 0.98
chr7	cladimo	cladistic_motif	66075525	66075530	0.070000	+	.	pwm_motif NGATR; species_matched chimp,dog,human,mouse,rat; pwm_name GATA2; pwm_accession MA0036; number_of_matches 5; "max score" 0.98
chr7	cladimo	cladistic_motif	66075528	66075532	0.000000	+	.	pwm_motif NGATR; species_matched cow; pwm_name GATA2; pwm_accession MA0036; number_of_matches 1; "max score" 0.967
chr7	cladimo	cladistic_motif	66075553	66075558	0.055000	+	.	pwm_motif NGATR; species_matched dog,mouse,rat; pwm_name GATA2; pwm_accession MA0036; number_of_matches 3; "max score" 0.99
chr7	cladimo	cladistic_motif	66075556	66075561	0.000000	+	.	pwm_motif NGATR; species_matched cow; pwm_name GATA2; pwm_accession MA0036; number_of_matches 1; "max score" 1.0
chr7	cladimo	cladistic_motif	66075654	66075682	0.000000	+	.	pwm_motif NGATR; species_matched elephant; pwm_name GATA2; pwm_accession MA0036; number_of_matches 1; "max score" 0.98
chr7	cladimo	cladistic_motif	66075660	66075665	0.061000	+	.	pwm_motif NGATR; species_matched chimp,cow,dog,human; pwm_name GATA2; pwm_accession MA0036; number_of_matches 4; "max score" 0.98
chr7	cladimo	cladistic_motif	66075668	66075673	0.122000	+	.	pwm_motif NGATR; species_matched armadillo,chimp,cow,dog,human,mouse,rat; pwm_name GATA2; pwm_accession MA0036; number_of_matches 7; "max score" 0.967
chr7	cladimo	cladistic_motif	66075677	66075682	0.019000	+	.	pwm_motif NGATR; species_matched mouse,rat; pwm_name GATA2; pwm_accession MA0036; number_of_matches 2; "max score" 0.98
chr7	cladimo	cladistic_motif	66075758	66075763	0.000000	+	.	pwm_motif NGATR; species_matched armadillo; pwm_name GATA2; pwm_accession MA0036; number_of_matches 1; "max score" 0.99
chr7	cladimo	cladistic_motif	66075801	66075806	0.000000	+	.	pwm_motif NGATR; species_matched cow; pwm_name GATA2; pwm_accession MA0036; number_of_matches 1; "max score" 0.97
chr7	cladimo	cladistic_motif	66075832	66075837	0.019000	+	.	pwm_motif NGATR; species_matched mouse,rat; pwm_name GATA2; pwm_accession MA0036; number_of_matches 2; "max score" 0.97
chr7	cladimo	cladistic_motif	66075841	66075846	0.000000	+	.	pwm_motif NGATR; species_matched mouse; pwm_name GATA2; pwm_accession MA0036; number_of_matches 1; "max score" 0.99
chr7	cladimo	cladistic_motif	66075874	66075879	0.000000	+	.	pwm_motif NGATR; species_matched elephant; pwm_name GATA2; pwm_accession MA0036; number_of_matches 1; "max score" 0.99
chr7	cladimo	cladistic_motif	66075876	66075881	0.000000	+	.	pwm_motif NGATR; species_matched mouse; pwm_name GATA2; pwm_accession MA0036; number_of_matches 1; "max score" 0.98
chr7	cladimo	cladistic_motif	66075886	66075891	0.000000	+	.	pwm_motif NGATR; species_matched rat; pwm_name GATA2; pwm_accession MA0036; number_of_matches 1; "max score" 0.99
chr7	cladimo	cladistic_motif	66075922	66075922	0.000000	+	.	pwm_motif NGATR; species_matched rat; pwm_name GATA2; pwm_accession MA0036; number_of_matches 1; "max score" 0.99
chr7	cladimo	cladistic_motif	66076027	66076032	0.000000	+	.	pwm_motif NGATR; species_matched armadillo; pwm_name GATA2; pwm_accession MA0036; number_of_matches 1; "max score" 0.98
chr7	cladimo	cladistic_motif	66076040	66076045	0.050000	+	.	pwm_motif NGATR; species_matched cow,elephant; pwm_name GATA2; pwm_accession MA0036; number_of_matches 2; "max score" 0.99
chr7	cladimo	cladistic_motif	66076043	66076048	0.000000	+	.	pwm_motif NGATR; species_matched rat; pwm_name GATA2; pwm_accession MA0036; number_of_matches 1; "max score" 0.99
chr7	cladimo	cladistic_motif	66076093	66076096	0.000000	+	.	pwm_motif NGATR; species_matched dog; pwm_name GATA2; pwm_accession MA0036; number_of_matches 1; "max score" 0.99
chr7	cladimo	cladistic_motif	66076102	66076102	0.000000	+	.	pwm_motif NGATR; species_matched armadillo; pwm_name GATA2; pwm_accession MA0036; number_of_matches 1; "max score" 0.97
chr7	cladimo	cladistic_motif	66076104	66076109	0.000000	+	.	pwm_motif NGATR; species_matched rat; pwm_name GATA2; pwm_accession MA0036; number_of_matches 1; "max score" 0.97
chr7	cladimo	cladistic_motif	66076126	66076131	0.000000	+	.	pwm_motif NGATR; species_matched dog; pwm_name GATA2; pwm_accession MA0036; number_of_matches 1; "max score" 0.99
chr7	cladimo	cladistic_motif	66076129	66076134	0.007000	+	.	pwm_motif NGATR; species_matched chimp,human,rhesus; pwm_name GATA2; pwm_accession MA0036; number_of_matches 3; "max score" 0.99
